<?xml version="1.0" encoding="utf-8"?>
<!-- Generator: Adobe Illustrator 16.0.0, SVG Export Plug-In . SVG Version: 6.00 Build 0)  -->
<!DOCTYPE svg PUBLIC "-//W3C//DTD SVG 1.1//EN" "http://www.w3.org/Graphics/SVG/1.1/DTD/svg11.dtd">
<svg version="1.1" xmlns="http://www.w3.org/2000/svg" xmlns:xlink="http://www.w3.org/1999/xlink" x="0px" y="0px"
	 width="6054.273px" height="2248px" viewBox="0 0 6054.273 2248" enable-background="new 0 0 6054.273 2248" xml:space="preserve">
<g id="Layer_4">
	<path d="M3759.709,1597.666c0,420.084-230.447,626.524-506.5,626.524c-273.663,0-496.906-194.438-496.906-607.321
		c0-345.673,216.049-571.315,513.704-571.315c283.261,0,489.702,208.844,489.702,549.709V1597.666z M3481.252,1624.068
		c0-235.249-98.426-338.467-211.245-338.467c-141.627,0-232.839,108.021-232.839,340.872c0,249.646,86.407,374.472,220.839,374.472
		c127.226,0,223.245-146.431,223.245-374.472V1624.068z"/>
	<path d="M4791.875,1544.855c0,216.039-16.807,540.105-21.611,643.33c-72.016,26.401-182.436,48.008-261.645,57.608
		c2.393-26.403,4.797-55.21,7.195-86.417c-40.811,21.604-117.623,60.014-249.648,60.014c-232.848,0-386.48-139.232-386.48-362.473
		c0-261.655,220.849-379.279,492.093-379.279c62.418,0,110.43,7.204,148.842,12.004c-7.205-153.63-74.42-216.042-235.248-216.042
		c-103.221,0-187.236,21.602-264.057,57.611c14.398-86.417,43.201-194.438,72.014-259.251
		c45.609-12.004,120.029-33.608,216.049-33.608c321.654,0,482.496,163.233,482.496,504.098V1544.855z M4371.779,1681.683
		c-134.414,0-223.236,69.612-223.236,177.634c0,88.818,52.814,156.028,172.836,156.028c86.416,0,156.029-28.805,194.436-52.808
		c7.199-69.612,9.605-189.638,9.605-271.251C4479.809,1684.081,4422.195,1681.683,4371.779,1681.683z"/>
	<path d="M6028.104,1662.479c0,199.235-26.402,412.879-45.609,525.706c-84.018,14.399-172.83,24.002-288.057,26.401
		c21.6-100.82,52.809-326.465,52.809-547.311c0-288.054-74.412-367.272-213.635-367.272c-74.42,0-151.232,43.212-201.648,84.02
		c-2.398,304.859,2.408,592.916,16.801,804.162c-100.816,16.798-187.23,24.002-290.453,28.8
		c4.807-124.823,4.807-228.04,4.807-324.061c0-391.281-14.41-1147.429-24.008-1363.474c91.213-24.006,192.037-52.812,312.059-98.422
		c-16.797,208.844-28.803,362.476-31.207,705.744c79.221-55.213,196.844-91.22,295.26-91.22
		c273.66,0,412.883,163.234,412.883,614.521V1662.479z"/>
	<path d="M2158.612,1045.554c-38.654,0-75.463,4.607-109.792,12.461c-77.119,80.023-104.498,176.01-108.092,278.129
		c45.28-24.922,98.273-40.941,160.278-40.941c115.226,0,189.63,72.017,189.63,324.066c0,228.046-21.599,451.293-40.805,590.518
		c108.021,0,196.842-4.803,285.664-16.803c12.002-105.62,33.601-355.271,33.601-614.525v-2.398
		C2569.095,1227.99,2427.465,1045.554,2158.612,1045.554z"/>
</g>
<g id="Layer_2">
	<path fill="#00AEEC" d="M1950.655,1047.563c-404.901,0-543.232,373.308-603.59,699.976
		c-133.443-190.665-352.444-112.524-380.242-388.328c89.508-5.132,174.075-38.215,239.419-101.519
		c35.388-34.297,61.733-74.693,80.176-118.513c186.562-62.695,448.669-444.741,381.878-397.983
		c-53.001,37.113-253.566,44.492-394.506,44.91c-4.457-9.851-9.56-19.545-14.691-29.228
		c87.038-140.372,144.835-337.742,113.504-297.785c-29.528,37.67-158.242,84.934-264.863,119.008
		c-143.244-110.121-323.918-136.549-464.925-71.633C478.768,405.848,297.574,227.476,219.932,76.281
		c-0.758-2.618-1.618-5.231-2.596-7.836c-3.079-8.188-7.057-15.725-11.733-22.51c-0.154-0.359-0.319-0.723-0.472-1.081
		c0,0-0.094,0.005-0.271,0.015c-21.992-31.048-58.804-45.791-91.218-33.597C82.755,22.861,64.957,55.476,66.704,91.24
		c-44.047,34.603-57.756,122.55,28.185,231.09c-81.254-64.544-112.16,91.609-28.308,154.585
		c93.289,70.066,436.909,350.461,514.474,813.695c30.886,184.455,78.99,571.167-42.533,814.221
		c-48.611,3.038-115.452,18.225-115.452,121.523h840.966c44.86,1.28,86.33,1.163,125.28,0h60.642c0-0.974-0.022-1.898-0.022-2.872
		C2324.175,2164.216,1563.362,1420.921,1950.655,1047.563z"/>
	<path fill="#FFFFFF" d="M895.201,609.617c-0.546,34.081-8.542,45.656-44.738,51.494c-36.201,5.837-79.207-19.355-78.684-53.441l0,0
		c0.352-22.022,20.785-33.979,61.143-40.486C870.209,561.173,895.724,575.532,895.201,609.617L895.201,609.617z"/>
	<g>
		<defs>
			<path id="SVGID_1_" d="M895.202,605.439c-0.45,30.396-0.501,42.528-29.093,52.523c-35.04,12.248-73.084-23.86-72.652-54.26l0,0
				c0.449-30.411,20.153-9.178,50.405-25.637C874.112,561.619,895.633,575.04,895.202,605.439L895.202,605.439z"/>
		</defs>
		<clipPath id="SVGID_2_">
			<use xlink:href="#SVGID_1_"  overflow="visible"/>
		</clipPath>
		<path clip-path="url(#SVGID_2_)" d="M908.845,630.848c0,22.514-16.888,40.764-37.688,40.764c-20.796,0-37.665-18.25-37.665-40.764
			c0-22.504,16.869-40.759,37.665-40.759C891.957,590.089,908.845,608.344,908.845,630.848z"/>
	</g>
</g>
</svg>
